; Engine configuration file.
; It's best edited using the editor UI and not directly,
; since the parameters that go here are not all obvious.
;
; Format:
;   [section] ; section goes between []
;   param=value ; assign values to parameters

config_version=4

_global_script_classes=[ {
"base": "",
"class": "GitAPI",
"language": "NativeScript",
"path": "res://addons/godot-git-plugin/git_api.gdns"
} ]
_global_script_class_icons={
"GitAPI": ""
}

[application]

config/name="Geolocator"
run/main_scene="res://Main.tscn"
boot_splash/image="res://icon.png"
config/icon="res://icon.png"

[autoload]

Status="*res://Scripts/Globals/Status.gd"

[display]

window/size/width=1280
window/size/height=720
window/dpi/allow_hidpi=true
window/energy_saving/keep_screen_on=false

[filesystem]

import/fbx/use_fbx=false

[gdnative]

singletons=[ "res://addons/godot-git-plugin/git_api.gdnlib", "res://pythonscript.gdnlib" ]

[gui]

theme/use_hidpi=true

[physics]

common/enable_pause_aware_picking=true

[rendering]

quality/driver/driver_name="GLES2"
quality/intended_usage/framebuffer_allocation=0
quality/intended_usage/framebuffer_allocation.mobile=0
threads/thread_model=2
vram_compression/import_etc=true
vram_compression/import_etc2=false
quality/depth/hdr=false
environment/default_environment="res://default_env.tres"
quality/dynamic_fonts/use_oversampling=false
